ICO_HW_Design/encoder.vcd
$date
	Thu Jul 24 21:59:44 2025
$end
$version
	Icarus Verilog
$end
$timescale
	1ps
$end
$scope module tb_Encoder $end
$var wire 16 ! count [15:0] $end
$var parameter 32 " CLK_PERIOD $end
$var parameter 32 # ENCODER_MAX $end
$var reg 1 $ A $end
$var reg 1 % B $end
$var reg 1 & clk $end
$var reg 1 ' rst $end
$scope module uut $end
$var wire 1 $ A $end
$var wire 1 % B $end
$var wire 1 & clk $end
$var wire 1 ' rst $end
$var wire 4 ( transition [3:0] $end
$var parameter 32 ) ENCODER_MAX $end
$var reg 1 * A_sync_0 $end
$var reg 1 + A_sync_1 $end
$var reg 1 , B_sync_0 $end
$var reg 1 - B_sync_1 $end
$var reg 16 . count [15:0] $end
$var reg 1 / prev_A $end
$var reg 1 0 prev_B $end
$upscope $end
$scope task quadrature_step_backward $end
$upscope $end
$scope task quadrature_step_forward $end
$upscope $end
$upscope $end
$enddefinitions $end
$comment Show the parameter values. $end
$dumpall
b1111101000000000 )
b1111101000000000 #
b1010 "
$end
#0
$dumpvars
x0
x/
bx .
x-
x,
x+
x*
bx (
1'
0&
0%
0$
bx !
$end
#5000
0-
0,
0+
0*
00
b0 (
0/
b111110100000000 !
b111110100000000 .
1&
#10000
0&
#15000
1&
#20000
0'
0&
#25000
1&
#30000
0&
#35000
1&
#40000
1%
0&
#45000
1,
1&
#50000
1$
0&
#55000
b1 (
1-
1*
1&
#60000
0%
0&
#65000
0,
1+
b111 (
10
b111110100000001 !
b111110100000001 .
1&
#70000
0$
0&
#75000
1/
b111110100000010 !
b111110100000010 .
b1110 (
0-
0*
1&
#80000
1%
0&
#85000
1,
0+
b1000 (
00
b111110100000011 !
b111110100000011 .
1&
#90000
1$
0&
#95000
0/
b111110100000100 !
b111110100000100 .
b1 (
1-
1*
1&
#100000
0%
0&
#105000
0,
1+
b111 (
10
b111110100000101 !
b111110100000101 .
1&
#110000
0$
0&
#115000
1/
b111110100000110 !
b111110100000110 .
b1110 (
0-
0*
1&
#120000
1%
0&
#125000
1,
0+
b1000 (
00
b111110100000111 !
b111110100000111 .
1&
#130000
1$
0&
#135000
0/
b111110100001000 !
b111110100001000 .
b1 (
1-
1*
1&
#140000
0%
0&
#145000
0,
1+
b111 (
10
b111110100001001 !
b111110100001001 .
1&
#150000
0$
0&
#155000
1/
b111110100001010 !
b111110100001010 .
b1110 (
0-
0*
1&
#160000
1%
0&
#165000
1,
0+
b1000 (
00
b111110100001011 !
b111110100001011 .
1&
#170000
1$
0&
#175000
0/
b111110100001100 !
b111110100001100 .
b1 (
1-
1*
1&
#180000
0%
0&
#185000
0,
1+
b111 (
10
b111110100001101 !
b111110100001101 .
1&
#190000
0&
#195000
1/
b111110100001110 !
b111110100001110 .
b1110 (
0-
1&
#200000
0&
#205000
b1010 (
00
b111110100001111 !
b111110100001111 .
1&
#210000
0$
0&
#215000
0*
1&
#220000
1$
0&
#225000
b1000 (
0+
1*
1&
#230000
1%
0&
#235000
0/
b111110100010000 !
b111110100010000 .
1,
b10 (
1+
1&
#240000
0$
0&
#245000
1-
0*
b1011 (
1/
b111110100001111 !
b111110100001111 .
1&
#250000
0%
0&
#255000
10
b111110100001110 !
b111110100001110 .
0,
b1101 (
0+
1&
#260000
1$
0&
#265000
0-
1*
b100 (
0/
b111110100001101 !
b111110100001101 .
1&
#270000
1%
0&
#275000
00
b111110100001100 !
b111110100001100 .
1,
b10 (
1+
1&
#280000
0$
0&
#285000
1-
0*
b1011 (
1/
b111110100001011 !
b111110100001011 .
1&
#290000
0%
0&
#295000
10
b111110100001010 !
b111110100001010 .
0,
b1101 (
0+
1&
#300000
1$
0&
#305000
0-
1*
b100 (
0/
b111110100001001 !
b111110100001001 .
1&
#310000
1%
0&
#315000
00
b111110100001000 !
b111110100001000 .
1,
b10 (
1+
1&
#320000
0$
0&
#325000
1-
0*
b1011 (
1/
b111110100000111 !
b111110100000111 .
1&
#330000
0%
0&
#335000
10
b111110100000110 !
b111110100000110 .
0,
b1101 (
0+
1&
#340000
1$
0&
#345000
0-
1*
b100 (
0/
b111110100000101 !
b111110100000101 .
1&
#350000
1%
0&
#355000
00
b111110100000100 !
b111110100000100 .
1,
b10 (
1+
1&
#360000
0$
0&
#365000
1-
0*
b1011 (
1/
b111110100000011 !
b111110100000011 .
1&
#370000
0&
#375000
10
b111110100000010 !
b111110100000010 .
b1101 (
0+
1&
#380000
0&
#385000
b101 (
0/
b111110100000001 !
b111110100000001 .
1&
